<?xml version="1.0" encoding="utf-8"?>
<!-- Generator: Adobe Illustrator 22.1.0, SVG Export Plug-In . SVG Version: 6.00 Build 0)  -->
<svg version="1.1" xmlns="http://www.w3.org/2000/svg" xmlns:xlink="http://www.w3.org/1999/xlink" x="0px" y="0px"
	 viewBox="0 0 98.4 98.4" style="enable-background:new 0 0 98.4 98.4;" xml:space="preserve">
<style type="text/css">
	.st0{display:none;}
	.st1{display:inline;}
	.st2{fill:#DEC48C;}
	.st3{fill:#C00D0D;}
	.st4{fill:#3172A8;}
	.st5{fill:#FFFFFF;}
</style>
<g id="Геоточки_FIFA" class="st0">
	<g class="st1">
		<path class="st2" d="M27.2-54.8c-1.9-2.3-4-2.4-4.8-2.4c0,0,0,0,0,0c0,0,0,0,0,0c0,0,0,0,0,0c0,0,0,0,0,0c-0.7,0-2.9,0.2-4.8,2.4
			c-1.9,2.3-4.1,7.3-3.6,11.2c0.5,3.9,3.1,4.8,5.2,5.7c2.2,0.9,3.1,2.3,3.1,2.3l0,0l0,0c0,0,0.9-1.4,3.1-2.3
			c2.2-0.9,4.7-1.8,5.2-5.7C31.3-47.5,29.1-52.5,27.2-54.8"/>
		<path class="st3" d="M27.4-53.2c-1.2-1.8-3.2-3.3-5-3.3c0,0,0,0,0,0c0,0,0,0,0,0c-1.8,0-3.8,1.5-5,3.3c-2.4,3.6-3.3,9.2-1.3,12
			c1.7,2.3,5.1,2.4,6.2,2.4h0h0c1.1,0,4.6-0.1,6.2-2.4C30.7-44.1,29.9-49.7,27.4-53.2"/>
		<path class="st4" d="M26.2-52.4c-0.9-1.2-2.3-2.3-3.7-2.3c0,0-0.1,0-0.1,0c0,0-0.1,0-0.1,0c-1.3,0-2.8,1.1-3.7,2.3
			c-1.8,2.5-2.4,6.4-0.9,8.4c1.2,1.6,3.8,1.7,4.6,1.7c0,0,0.1,0,0.1,0c0,0,0.1,0,0.1,0c0.8,0,3.4-0.1,4.6-1.7
			C28.7-46,28-49.9,26.2-52.4"/>
	</g>
	<g class="st1">
		<path class="st2" d="M-83.4-29.5c-1.9-2.3-4-2.4-4.8-2.4c0,0,0,0,0,0c0,0,0,0,0,0c0,0,0,0,0,0c0,0,0,0,0,0c-0.7,0-2.9,0.2-4.8,2.4
			c-1.9,2.3-4.1,7.3-3.6,11.2c0.5,3.9,3.1,4.8,5.2,5.7c2.2,0.9,3.1,2.3,3.1,2.3l0,0l0,0c0,0,0.9-1.4,3.1-2.3
			c2.2-0.9,4.7-1.8,5.2-5.7C-79.3-22.2-81.5-27.2-83.4-29.5"/>
		<path class="st3" d="M-83.2-28c-1.2-1.8-3.2-3.3-5-3.3c0,0,0,0,0,0c0,0,0,0,0,0c-1.8,0-3.8,1.5-5,3.3c-2.4,3.6-3.3,9.2-1.3,12
			c1.7,2.3,5.1,2.4,6.2,2.4h0h0c1.1,0,4.6-0.1,6.2-2.4C-79.9-18.8-80.8-24.4-83.2-28"/>
		<path class="st4" d="M-84.4-27.1c-0.9-1.2-2.3-2.3-3.7-2.3c0,0-0.1,0-0.1,0c0,0-0.1,0-0.1,0c-1.3,0-2.8,1.1-3.7,2.3
			c-1.8,2.5-2.4,6.4-0.9,8.4c1.2,1.6,3.8,1.7,4.6,1.7c0,0,0.1,0,0.1,0c0,0,0.1,0,0.1,0c0.8,0,3.4-0.1,4.6-1.7
			C-81.9-20.7-82.6-24.6-84.4-27.1"/>
	</g>
	<g class="st1">
		<path class="st2" d="M55.7,37.2c-1.9-2.3-4-2.4-4.8-2.4c0,0,0,0,0,0c0,0,0,0,0,0c0,0,0,0,0,0c0,0,0,0,0,0c-0.7,0-2.9,0.2-4.8,2.4
			c-1.9,2.3-4.1,7.3-3.6,11.2c0.5,3.9,3.1,4.8,5.2,5.7c2.2,0.9,3.1,2.3,3.1,2.3l0,0l0,0c0,0,0.9-1.4,3.1-2.3
			c2.2-0.9,4.7-1.8,5.2-5.7C59.8,44.4,57.6,39.5,55.7,37.2"/>
		<path class="st3" d="M55.9,38.7c-1.2-1.8-3.2-3.3-5-3.3c0,0,0,0,0,0c0,0,0,0,0,0c-1.8,0-3.8,1.5-5,3.3c-2.4,3.6-3.3,9.2-1.3,12
			c1.7,2.3,5.1,2.4,6.2,2.4h0h0c1.1,0,4.6-0.1,6.2-2.4C59.2,47.9,58.3,42.3,55.9,38.7"/>
		<path class="st4" d="M54.7,39.6c-0.9-1.2-2.3-2.3-3.7-2.3c0,0-0.1,0-0.1,0c0,0-0.1,0-0.1,0c-1.3,0-2.8,1.1-3.7,2.3
			c-1.8,2.5-2.4,6.4-0.9,8.4c1.2,1.6,3.8,1.7,4.6,1.7c0,0,0.1,0,0.1,0c0,0,0.1,0,0.1,0c0.8,0,3.4-0.1,4.6-1.7
			C57.1,46,56.5,42.1,54.7,39.6"/>
	</g>
	<g class="st1">
		<path class="st2" d="M22.5,9.6c-1.9-2.3-4-2.4-4.8-2.4c0,0,0,0,0,0c0,0,0,0,0,0c0,0,0,0,0,0c0,0,0,0,0,0c-0.7,0-2.9,0.2-4.8,2.4
			c-1.9,2.3-4.1,7.3-3.6,11.2c0.5,3.9,3.1,4.8,5.2,5.7c2.2,0.9,3.1,2.3,3.1,2.3l0,0l0,0c0,0,0.9-1.4,3.1-2.3
			c2.2-0.9,4.7-1.8,5.2-5.7C26.6,16.9,24.4,11.9,22.5,9.6"/>
		<path class="st3" d="M22.7,11.1c-1.2-1.8-3.2-3.3-5-3.3c0,0,0,0,0,0c0,0,0,0,0,0c-1.8,0-3.8,1.5-5,3.3c-2.4,3.6-3.3,9.2-1.3,12
			c1.7,2.3,5.1,2.4,6.2,2.4h0h0c1.1,0,4.6-0.1,6.2-2.4C26,20.3,25.1,14.7,22.7,11.1"/>
		<path class="st4" d="M21.5,12c-0.9-1.2-2.3-2.3-3.7-2.3c0,0-0.1,0-0.1,0c0,0-0.1,0-0.1,0c-1.3,0-2.8,1.1-3.7,2.3
			c-1.8,2.5-2.4,6.4-0.9,8.4c1.2,1.6,3.8,1.7,4.6,1.7c0,0,0.1,0,0.1,0c0,0,0.1,0,0.1,0c0.8,0,3.4-0.1,4.6-1.7
			C23.9,18.4,23.3,14.5,21.5,12"/>
	</g>
	<g class="st1">
		<path class="st2" d="M112.9,57.7c-1.9-2.3-4-2.4-4.8-2.4c0,0,0,0,0,0c0,0,0,0,0,0c0,0,0,0,0,0c0,0,0,0,0,0c-0.7,0-2.9,0.2-4.8,2.4
			c-1.9,2.3-4.1,7.3-3.6,11.2c0.5,3.9,3.1,4.8,5.2,5.7c2.2,0.9,3.1,2.3,3.1,2.3l0,0l0,0c0,0,0.9-1.4,3.1-2.3
			c2.2-0.9,4.7-1.8,5.2-5.7C117,65,114.8,60,112.9,57.7"/>
		<path class="st3" d="M113.1,59.2c-1.2-1.8-3.2-3.3-5-3.3c0,0,0,0,0,0c0,0,0,0,0,0c-1.8,0-3.8,1.5-5,3.3c-2.4,3.6-3.3,9.2-1.3,12
			c1.7,2.3,5.1,2.4,6.2,2.4h0h0c1.1,0,4.6-0.1,6.2-2.4C116.4,68.4,115.5,62.8,113.1,59.2"/>
		<path class="st4" d="M111.9,60.1c-0.9-1.2-2.3-2.3-3.7-2.3c0,0-0.1,0-0.1,0c0,0-0.1,0-0.1,0c-1.3,0-2.8,1.1-3.7,2.3
			c-1.8,2.5-2.4,6.4-0.9,8.4c1.2,1.6,3.8,1.7,4.6,1.7c0,0,0.1,0,0.1,0c0,0,0.1,0,0.1,0c0.8,0,3.4-0.1,4.6-1.7
			C114.4,66.5,113.7,62.6,111.9,60.1"/>
	</g>
	<g class="st1">
		<path class="st2" d="M199.6,83.1c-1.9-2.3-4-2.4-4.8-2.4c0,0,0,0,0,0c0,0,0,0,0,0c0,0,0,0,0,0c0,0,0,0,0,0c-0.7,0-2.9,0.2-4.8,2.4
			c-1.9,2.3-4.1,7.3-3.6,11.2c0.5,3.9,3.1,4.8,5.2,5.7c2.2,0.9,3.1,2.3,3.1,2.3l0,0l0,0c0,0,0.9-1.4,3.1-2.3
			c2.2-0.9,4.7-1.8,5.2-5.7C203.7,90.4,201.5,85.4,199.6,83.1"/>
		<path class="st3" d="M199.8,84.7c-1.2-1.8-3.2-3.3-5-3.3c0,0,0,0,0,0c0,0,0,0,0,0c-1.8,0-3.8,1.5-5,3.3c-2.4,3.6-3.3,9.2-1.3,12
			c1.7,2.3,5.1,2.4,6.2,2.4h0h0c1.1,0,4.6-0.1,6.2-2.4C203.1,93.8,202.2,88.2,199.8,84.7"/>
		<path class="st4" d="M198.6,85.5c-0.9-1.2-2.3-2.3-3.7-2.3c0,0-0.1,0-0.1,0c0,0-0.1,0-0.1,0c-1.3,0-2.8,1.1-3.7,2.3
			c-1.8,2.5-2.4,6.4-0.9,8.4c1.2,1.6,3.8,1.7,4.6,1.7c0,0,0.1,0,0.1,0c0,0,0.1,0,0.1,0c0.8,0,3.4-0.1,4.6-1.7
			C201,91.9,200.4,88,198.6,85.5"/>
	</g>
	<g class="st1">
		<path class="st2" d="M46.3,73.2c-1.9-2.3-4-2.4-4.8-2.4c0,0,0,0,0,0c0,0,0,0,0,0c0,0,0,0,0,0c0,0,0,0,0,0c-0.7,0-2.9,0.2-4.8,2.4
			c-1.9,2.3-4.1,7.3-3.6,11.2c0.5,3.9,3.1,4.8,5.2,5.7c2.2,0.9,3.1,2.3,3.1,2.3l0,0l0,0c0,0,0.9-1.4,3.1-2.3
			c2.2-0.9,4.7-1.8,5.2-5.7C50.4,80.5,48.3,75.5,46.3,73.2"/>
		<path class="st3" d="M46.5,74.8c-1.2-1.8-3.2-3.3-5-3.3c0,0,0,0,0,0c0,0,0,0,0,0c-1.8,0-3.8,1.5-5,3.3c-2.4,3.6-3.3,9.2-1.3,12
			c1.7,2.3,5.1,2.4,6.2,2.4h0h0c1.1,0,4.6-0.1,6.2-2.4C49.8,83.9,49,78.3,46.5,74.8"/>
		<path class="st4" d="M45.3,75.6c-0.9-1.2-2.3-2.3-3.7-2.3c0,0-0.1,0-0.1,0c0,0-0.1,0-0.1,0c-1.3,0-2.8,1.1-3.7,2.3
			C36,78.1,35.4,82,36.9,84c1.2,1.6,3.8,1.7,4.6,1.7c0,0,0.1,0,0.1,0c0,0,0.1,0,0.1,0c0.8,0,3.4-0.1,4.6-1.7
			C47.8,82,47.1,78.1,45.3,75.6"/>
	</g>
	<g class="st1">
		<path class="st2" d="M88.4,93.9c-1.9-2.3-4-2.4-4.8-2.4c0,0,0,0,0,0c0,0,0,0,0,0c0,0,0,0,0,0c0,0,0,0,0,0c-0.7,0-2.9,0.2-4.8,2.4
			c-1.9,2.3-4.1,7.3-3.6,11.2c0.5,3.9,3.1,4.8,5.2,5.7c2.2,0.9,3.1,2.3,3.1,2.3l0,0l0,0c0,0,0.9-1.4,3.1-2.3
			c2.2-0.9,4.7-1.8,5.2-5.7C92.4,101.1,90.3,96.2,88.4,93.9"/>
		<path class="st3" d="M88.6,95.4c-1.2-1.8-3.2-3.3-5-3.3c0,0,0,0,0,0c0,0,0,0,0,0c-1.8,0-3.8,1.5-5,3.3c-2.4,3.6-3.3,9.2-1.3,12
			c1.7,2.3,5.1,2.4,6.2,2.4h0h0c1.1,0,4.6-0.1,6.2-2.4C91.9,104.6,91,99,88.6,95.4"/>
		<path class="st4" d="M87.4,96.3C86.5,95,85,94,83.7,93.9c0,0-0.1,0-0.1,0c0,0-0.1,0-0.1,0c-1.3,0-2.8,1.1-3.7,2.3
			c-1.8,2.5-2.4,6.4-0.9,8.4c1.2,1.6,3.8,1.7,4.6,1.7c0,0,0.1,0,0.1,0c0,0,0.1,0,0.1,0c0.8,0,3.4-0.1,4.6-1.7
			C89.8,102.7,89.2,98.8,87.4,96.3"/>
	</g>
	<g class="st1">
		<path class="st2" d="M7,113.1c-1.9-2.3-4-2.4-4.8-2.4c0,0,0,0,0,0c0,0,0,0,0,0c0,0,0,0,0,0c0,0,0,0,0,0c-0.7,0-2.9,0.2-4.8,2.4
			c-1.9,2.3-4.1,7.3-3.6,11.2c0.5,3.9,3.1,4.8,5.2,5.7c2.2,0.9,3.1,2.3,3.1,2.3l0,0l0,0c0,0,0.9-1.4,3.1-2.3
			c2.2-0.9,4.7-1.8,5.2-5.7C11,120.4,8.9,115.4,7,113.1"/>
		<path class="st3" d="M7.2,114.7c-1.2-1.8-3.2-3.3-5-3.3c0,0,0,0,0,0c0,0,0,0,0,0c-1.8,0-3.8,1.5-5,3.3c-2.4,3.6-3.3,9.2-1.3,12
			c1.7,2.3,5.1,2.4,6.2,2.4h0h0c1.1,0,4.6-0.1,6.2-2.4C10.5,123.8,9.6,118.2,7.2,114.7"/>
		<path class="st4" d="M6,115.5c-0.9-1.2-2.3-2.3-3.7-2.3c0,0-0.1,0-0.1,0c0,0-0.1,0-0.1,0c-1.3,0-2.8,1.1-3.7,2.3
			c-1.8,2.5-2.4,6.4-0.9,8.4c1.2,1.6,3.8,1.7,4.6,1.7c0,0,0.1,0,0.1,0c0,0,0.1,0,0.1,0c0.8,0,3.4-0.1,4.6-1.7
			C8.4,121.9,7.7,118,6,115.5"/>
	</g>
	<g class="st1">
		<path class="st2" d="M-58.1,97.5c-1.9-2.3-4-2.4-4.8-2.4c0,0,0,0,0,0c0,0,0,0,0,0c0,0,0,0,0,0c0,0,0,0,0,0c-0.7,0-2.9,0.2-4.8,2.4
			c-1.9,2.3-4.1,7.3-3.6,11.2c0.5,3.9,3.1,4.8,5.2,5.7c2.2,0.9,3.1,2.3,3.1,2.3l0,0l0,0c0,0,0.9-1.4,3.1-2.3
			c2.2-0.9,4.7-1.8,5.2-5.7C-54.1,104.8-56.2,99.8-58.1,97.5"/>
		<path class="st3" d="M-57.9,99c-1.2-1.8-3.2-3.3-5-3.3c0,0,0,0,0,0c0,0,0,0,0,0c-1.8,0-3.8,1.5-5,3.3c-2.4,3.6-3.3,9.2-1.3,12
			c1.7,2.3,5.1,2.4,6.2,2.4h0h0c1.1,0,4.6-0.1,6.2-2.4C-54.6,108.2-55.5,102.6-57.9,99"/>
		<path class="st4" d="M-59.2,99.9c-0.9-1.2-2.3-2.3-3.7-2.3c0,0-0.1,0-0.1,0c0,0-0.1,0-0.1,0c-1.3,0-2.8,1.1-3.7,2.3
			c-1.8,2.5-2.4,6.4-0.9,8.4c1.2,1.6,3.8,1.7,4.6,1.7c0,0,0.1,0,0.1,0c0,0,0.1,0,0.1,0c0.8,0,3.4-0.1,4.6-1.7
			C-56.7,106.3-57.4,102.4-59.2,99.9"/>
	</g>
	<g class="st1">
		<path class="st2" d="M-75.9,142.5c-1.9-2.3-4-2.4-4.8-2.4c0,0,0,0,0,0c0,0,0,0,0,0c0,0,0,0,0,0c0,0,0,0,0,0
			c-0.7,0-2.9,0.2-4.8,2.4c-1.9,2.3-4.1,7.3-3.6,11.2c0.5,3.9,3.1,4.8,5.2,5.7c2.2,0.9,3.1,2.3,3.1,2.3l0,0l0,0c0,0,0.9-1.4,3.1-2.3
			c2.2-0.9,4.7-1.8,5.2-5.7C-71.9,149.8-74,144.8-75.9,142.5"/>
		<path class="st3" d="M-75.7,144c-1.2-1.8-3.2-3.3-5-3.3c0,0,0,0,0,0c0,0,0,0,0,0c-1.8,0-3.8,1.5-5,3.3c-2.4,3.6-3.3,9.2-1.3,12
			c1.7,2.3,5.1,2.4,6.2,2.4h0h0c1.1,0,4.6-0.1,6.2-2.4C-72.4,153.2-73.3,147.6-75.7,144"/>
		<path class="st4" d="M-76.9,144.9c-0.9-1.2-2.3-2.3-3.7-2.3c0,0-0.1,0-0.1,0c0,0-0.1,0-0.1,0c-1.3,0-2.8,1.1-3.7,2.3
			c-1.8,2.5-2.4,6.4-0.9,8.4c1.2,1.6,3.8,1.7,4.6,1.7c0,0,0.1,0,0.1,0c0,0,0.1,0,0.1,0c0.8,0,3.4-0.1,4.6-1.7
			C-74.5,151.3-75.2,147.4-76.9,144.9"/>
	</g>
</g>
<g id="Геоточки_Мячи">
	<g>
		<circle class="st5" cx="49.2" cy="49.5" r="47.3"/>
		<path class="st4" d="M98.4,49.2c0-18.8-10.6-35.2-26.2-43.5l0,0c0,0,0,0-0.1,0C65.3,2.1,57.5,0,49.2,0C40,0,31.4,2.6,24,7
			c-0.1,0-0.1,0.1-0.2,0.1l0,0C9.6,15.7,0,31.4,0,49.2c0,22.2,14.8,41,35.1,47.1c0.4,0.1,0.8,0.3,1.3,0.4l0,0
			c4.1,1.1,8.4,1.7,12.8,1.7c4.7,0,9.3-0.7,13.6-1.9l0,0c0.2-0.1,0.4-0.1,0.6-0.2c2.7-0.8,5.2-1.8,7.7-3.1c0.2-0.1,0.3-0.1,0.4-0.2
			l0,0C87.5,84.9,98.4,68.3,98.4,49.2z M89.5,57.8c0.2-1.6,0.5-4.8,0.5-9.9c0-4.9-0.5-7.9-1-9.5c0.6-0.8,1.3-1.9,2.1-3.1
			c1.4,4.4,2.2,9,2.2,13.9c0,4.1-0.6,8.1-1.6,11.9C90.9,59.7,90.1,58.6,89.5,57.8z M88.5,29.1c-0.5,1.6-1.7,3.7-3,5.6
			c-1.7-0.9-4.2-2.2-6.6-3.3c-2.6-1.2-5.3-1.8-7-2.1c-0.2-0.5-0.4-0.9-0.6-1.2c-0.1-0.1-0.1-0.3-0.2-0.4c-0.8-1.4-2.7-4.3-4.6-7.2
			c-1.9-2.7-3.1-4.1-4-5.2l-0.3-0.4c0,0-0.1-0.1-0.1-0.1c1-1.7,2.5-4.3,3.4-5.7c0.2,0,0.5,0.1,0.9,0.2c1.5,0.3,3.2,0.9,3.9,1.2
			C78,14.6,84.4,21.2,88.5,29.1z M30.4,9.4C30.4,9.4,30.4,9.4,30.4,9.4L30.4,9.4C30.4,9.4,30.4,9.4,30.4,9.4z M35.4,49.7
			c-1.5,2.6-7,12.4-7.6,13.6c-0.7-0.2-1.5-0.4-2.4-0.7c-2.4-0.6-8.8-3.1-10.9-3.9c-0.1-0.5-0.2-1.8-0.2-2.6c0-0.6,0-1.3,0-2
			c-0.2-3,0.1-11.3,0.4-12.6c0.2-0.2,1-0.6,1.5-0.8c0.3-0.2,0.7-0.3,1.1-0.5c2.2-1.1,7.6-3.6,9.4-4.3C29.4,40,34.5,48.2,35.4,49.7z
			 M30.6,32.3c0.6-1.2,2.6-5.2,4.3-7.8l0.7-1.1c1.1-1.8,2.8-4.5,3.5-5.1c0.9-0.4,4.2-1.1,7.5-1.1c1.2,0,2.7,0,4.3,0
			c2.3,0,5.5-0.1,6,0c0.1,0,0.6,0.2,1.3,0.9l0.4,0.4c0.8,0.9,1.9,2.2,3.7,4.7c2.1,3.1,3.8,5.7,4.4,6.8c0.1,0.2,0.2,0.3,0.3,0.5
			c0.1,0.3,0.4,0.6,0.4,0.8c0,0,0,0.1-0.1,0.4c-0.9,1.7-6.8,12.3-7.5,13.7c-0.1,0.1-0.1,0.2-0.2,0.3l-20,0.9
			C37.7,43.8,31.9,34.3,30.6,32.3z M31.7,66.4c0.1-0.2,0.3-0.4,0.4-0.7c0.4-0.7,7.4-13.2,7.9-14.2l19.3-0.9c1.3,2.4,7.2,12.1,8,13.5
			c0.1,0.2,0.5,1,0.8,1.5c-0.1,0.2-0.2,0.7-0.6,1.5c-1,2.2-4,7.5-5.5,9.7c-0.3,0.4-0.6,0.8-0.8,1.2c-1.1,1.6-1.5,2.2-2.2,2.4
			c-1.3,0.4-5.3,0.7-10.5,0.8c-3,0.1-6.2,0.1-7.2,0c-0.1-0.1-0.1-0.2-0.2-0.3c-0.2-0.2-0.3-0.4-0.5-0.7c-0.8-0.9-4.1-5.4-5.5-7.6
			c-3-4.8-3.4-6.1-3.5-6.2c0,0,0,0,0,0C31.7,66.5,31.7,66.5,31.7,66.4z M63.8,48.2l0.1-0.2c0.3-0.5,6.3-11.3,7.6-13.7
			c1.4,0.3,3.3,0.8,5.2,1.7c2.8,1.3,6,3,7.4,3.8c0.3,1,0.9,3.5,0.8,8.2c0,4.6-0.3,7.5-0.4,9l-12.2,5.6c-0.2-0.3-0.3-0.6-0.4-0.7
			l-0.1-0.1C69.1,57.1,64.6,49.5,63.8,48.2z M53.1,5.3L53.1,5.3c1.2,0.3,4.8,1.1,6.5,1.8l0.1,0.1c0.2,0.1,0.5,0.2,0.7,0.3
			c-0.9,1.4-2,3.4-2.8,4.8c-0.8-0.1-2.5-0.1-6.7,0c-1.5,0-3,0-4.2,0c-2.4,0-5.1,0.3-7.2,0.8c-0.5-0.9-1.2-2-2-3.1
			c-0.5-0.7-1.1-1.3-1.6-1.9c0.1-0.1,0.3-0.1,0.4-0.2l0.6-0.3c1.9-0.9,4.8-1.7,5.4-1.9c2.3-0.4,4.6-0.6,7-0.6
			C50.5,5.1,51.8,5.1,53.1,5.3z M26.3,11.5c0.8-0.4,2.7-1.1,3.9-1.2c0.3,0,0.6,0,0.8-0.1c0.6,0.7,1.5,1.8,2.4,2.9
			c0.6,0.8,1.2,1.6,1.5,2.3c-1,1.2-2.2,2.9-3.7,5.3l-0.7,1.1c-2,3.2-4.6,8.4-4.7,8.6l0,0.1c0,0.1,0,0.1-0.1,0.2
			c-0.2,0.1-0.4,0.2-0.6,0.2c-1.8,0.7-7.8,3.5-10,4.6c-0.4,0.2-0.7,0.3-1,0.5c-0.3,0.1-0.6,0.3-0.9,0.4c-0.8-1.1-1.7-2.5-2.6-3.8
			c-0.9-1.3-1.1-2.2-1.2-2.6C13.2,22.4,19.1,15.9,26.3,11.5z M9.2,54.3c0,0.6,0,1.2,0,1.8c0,1.2,0,2.5,0.3,3.7
			c-0.5,0.7-1.2,1.6-1.9,2.9c-0.1,0.2-0.2,0.4-0.3,0.6c-1.5-4.4-2.3-9.2-2.3-14.1c0-4.5,0.7-8.8,1.9-12.8C8,38,9.1,39.5,9.8,40.5
			C9.3,43,9.1,51.8,9.2,54.3z M10,69.5c0.4-1.1,1-2.4,2.2-4.4c0.3-0.6,0.7-1.1,0.9-1.5c2.6,1.1,8.5,3.2,10.9,3.9
			c1.1,0.3,2,0.6,2.8,0.8c0.4,1.2,1.3,3.2,4,7.3c1.6,2.5,5.1,7.2,6,8.2c0,0,0,0,0.1,0.1l-4,6.1c0,0.1-0.1,0.1-0.1,0.2
			C22.9,86.2,14.9,78.8,10,69.5z M37.7,91.8l3.5-5.4c0.8,0,2,0.1,3.3,0.1c1.6,0,3.2,0,4.2-0.1c3.9-0.1,8.8-0.3,11.3-0.9
			c1,1.7,2.2,3.7,3.3,5.3c-0.4,0.2-0.8,0.4-1.4,0.6c-4,1.2-8.3,1.9-12.7,1.9C45.2,93.3,41.4,92.8,37.7,91.8z M69.1,88.6
			c-0.1,0-0.4,0.1-1,0.2c0,0,0,0-0.1,0c-0.9-1.2-2.4-3.6-3.8-6c0.5-0.6,0.9-1.2,1.3-1.9c0.2-0.4,0.5-0.7,0.8-1.1
			c1.7-2.5,4.8-8,5.9-10.5c0.3-0.7,0.5-1.2,0.7-1.8c0.4-0.1,0.7-0.1,0.8-0.2l12.3-5.6c1.1,1.6,2.6,4,3.1,6.1
			C85,76.8,77.9,84.1,69.1,88.6z"/>
	</g>
</g>
</svg>
