<?xml version="1.0" standalone="no"?>
<!DOCTYPE svg PUBLIC "-//W3C//DTD SVG 20010904//EN"
 "http://www.w3.org/TR/2001/REC-SVG-20010904/DTD/svg10.dtd">
<svg version="1.0" xmlns="http://www.w3.org/2000/svg"
 width="700.000000pt" height="700.000000pt" viewBox="0 0 700.000000 700.000000"
 preserveAspectRatio="xMidYMid meet">
<metadata>
Created by potrace 1.11, written by Peter Selinger 2001-2013
</metadata>
<g transform="translate(0.000000,700.000000) scale(0.100000,-0.100000)"
fill="#000000" stroke="none">
<path d="M3298 6995 c-2 -1 -39 -5 -83 -9 -138 -12 -176 -17 -320 -42 -333
-59 -608 -150 -940 -310 -81 -39 -128 -64 -246 -132 -217 -123 -471 -323 -687
-541 -415 -417 -706 -906 -875 -1466 -69 -228 -111 -450 -134 -710 -15 -156
-7 -590 11 -693 2 -9 7 -44 11 -77 4 -32 9 -68 11 -80 2 -11 6 -35 9 -54 2
-18 7 -41 9 -50 3 -9 7 -27 10 -41 8 -51 47 -207 68 -275 12 -38 23 -74 24
-80 4 -20 66 -191 79 -220 7 -16 25 -59 40 -95 217 -520 633 -1051 1095 -1398
52 -40 100 -75 105 -79 60 -47 272 -175 410 -248 252 -134 691 -288 938 -330
192 -33 219 -37 386 -52 99 -10 464 -9 563 0 179 17 374 46 479 72 35 9 75 18
89 21 89 18 356 106 489 161 90 37 343 165 410 207 22 14 43 26 46 26 14 0
388 259 405 281 3 3 39 34 80 69 153 129 347 332 487 510 47 61 213 298 213
305 0 2 21 39 46 82 156 263 288 587 366 898 33 133 34 136 48 215 20 117 29
177 35 235 3 33 9 94 14 135 9 83 7 544 -2 575 -3 11 -8 49 -12 85 -37 408
-197 917 -404 1285 -13 22 -37 65 -54 95 -76 136 -238 363 -361 505 -125 144
-353 366 -471 458 -358 278 -686 453 -1130 602 -54 18 -214 63 -245 68 -14 3
-56 12 -95 21 -38 9 -99 20 -135 26 -36 5 -74 12 -85 14 -11 2 -51 7 -90 11
-38 4 -88 9 -110 12 -40 5 -492 12 -497 8z"/>
</g>
</svg>
