<?xml version="1.0" encoding="UTF-16"?>
<!DOCTYPE svg PUBLIC "-//W3C//DTD SVG 1.1//EN" "http://www.w3.org/Graphics/SVG/1.1/DTD/svg11.dtd">
<!-- Creator: CorelDRAW X8 -->
<svg xmlns="http://www.w3.org/2000/svg" xml:space="preserve" width="100%" height="100%" version="1.1" style="shape-rendering:geometricPrecision; text-rendering:geometricPrecision; image-rendering:optimizeQuality; fill-rule:evenodd; clip-rule:evenodd"
viewBox="0 0 47240 70556"
 xmlns:xlink="http://www.w3.org/1999/xlink">
 <defs>
  <style type="text/css">
   <![CDATA[
    .fil0 {fill:#3874A9;fill-rule:nonzero}
   ]]>
  </style>
 </defs>
 <g id="Слой_x0020_1">
  <metadata id="CorelCorpID_0Corel-Layer"/>
  <path class="fil0" d="M43078 70556l-38912 0c-2300,0 -4166,-1813 -4166,-4043l0 -52395c0,-2226 1866,-4035 4166,-4035l11219 0 0 -8319c0,-974 790,-1764 1763,-1764l12940 0c978,0 1764,790 1764,1764l0 8319 11211 0c2301,0 4177,1816 4177,4050l0 52380c0,2230 -1869,4043 -4162,4043zm-38912 -56946c-346,0 -638,233 -638,508l0 52395c0,279 292,515 638,515l38912 0c349,0 635,-229 635,-515l0 -52380c0,-279 -304,-523 -650,-523l-11430 0c-825,3214 -3855,5606 -7450,5606l-1126 0c-3598,0 -6628,-2392 -7450,-5606l-11441 0zm14746 -10082l0 8319c0,2116 1859,3838 4142,3838l1129 0c2282,0 4141,-1722 4141,-3838l0 -8319 -9412 0zm20807 60717l-32201 0c-974,0 -1764,-791 -1764,-1764 0,-974 790,-1764 1764,-1764l32201 0c974,0 1764,790 1764,1764 0,973 -790,1764 -1764,1764zm0 -6668l-32201 0c-974,0 -1764,-790 -1764,-1764 0,-977 790,-1764 1764,-1764l32201 0c974,0 1764,787 1764,1764 0,974 -790,1764 -1764,1764zm-7623 -5905l-16948 0c-973,0 -1764,-791 -1764,-1764l0 -8435c0,-3119 2509,-5655 5592,-5655l9292 0c3083,0 5592,2536 5592,5655l0 8435c0,973 -791,1764 -1764,1764zm-15184 -3528l13420 0 0 -6671c0,-1175 -928,-2127 -2064,-2127l-9292 0c-1136,0 -2064,952 -2064,2127l0 6671zm6703 -14125c-3045,0 -5521,-2502 -5521,-5581 0,-3080 2476,-5585 5521,-5585 3048,0 5524,2505 5524,5585 0,3079 -2476,5581 -5524,5581zm0 -7638c-1097,0 -1993,924 -1993,2057 0,1132 896,2053 1993,2053 1101,0 1997,-921 1997,-2053 0,-1133 -896,-2057 -1997,-2057z"/>
 </g>
</svg>
