<?xml version="1.0" encoding="UTF-16"?>
<!DOCTYPE svg PUBLIC "-//W3C//DTD SVG 1.1//EN" "http://www.w3.org/Graphics/SVG/1.1/DTD/svg11.dtd">
<!-- Creator: CorelDRAW X8 -->
<svg xmlns="http://www.w3.org/2000/svg" xml:space="preserve" width="100%" height="100%" version="1.1" style="shape-rendering:geometricPrecision; text-rendering:geometricPrecision; image-rendering:optimizeQuality; fill-rule:evenodd; clip-rule:evenodd"
viewBox="0 0 91307 70556"
 xmlns:xlink="http://www.w3.org/1999/xlink">
 <defs>
  <style type="text/css">
   <![CDATA[
    .fil0 {fill:#3874A9;fill-rule:nonzero}
   ]]>
  </style>
 </defs>
 <g id="Слой_x0020_1">
  <metadata id="CorelCorpID_0Corel-Layer"/>
  <path class="fil0" d="M91307 18898c0,-1270 -1030,-2300 -2304,-2300l-23001 0c14,95 18,191 18,286 0,875 -409,1707 -1097,2240l-9098 6992c-484,378 -1094,582 -1711,582 -279,0 -554,-46 -819,-127l0 40425c0,1969 1595,3560 3563,3560 1962,0 3556,-1591 3556,-3560l0 -25986 1337 0 0 25986c0,1969 1595,3560 3556,3560 1969,0 3563,-1591 3563,-3560l0 -45798 20133 0c1274,0 2304,-1030 2304,-2300zm-26642 -4745c1743,-1160 2893,-3143 2893,-5397 0,-3581 -2896,-6473 -6473,-6473 -3581,0 -6477,2892 -6477,6473 0,1919 836,3644 2159,4830l2455 -1881c483,-370 1090,-582 1707,-582l4 0c882,0 1732,420 2265,1122l1467 1908zm-14541 4548l2737 -2103 -19702 0c-1274,0 -2304,1027 -2304,2300 0,1270 1030,2304 2304,2304l15878 0c-3,-85 -14,-176 -14,-265 0,-871 413,-1707 1101,-2236zm-18687 4226c-1492,-1503 -2737,-2942 -3598,-3997 -431,-526 -769,-959 -995,-1256 -113,-148 -198,-257 -254,-335 -56,-70 -71,-95 -71,-95 -416,-575 -1012,-924 -1651,-1034 -211,-56 -433,-84 -656,-84l-12040 0 12001 16658 1884 -8005c519,575 1094,1182 1701,1796 2392,2388 5355,5009 8738,6865l4611 -3546c-3327,-1259 -6950,-4198 -9670,-6967zm-8509 -15956l2907 0 -2886 -2773 -12650 0 0 4 0 2705c-815,3482 1351,6961 4840,7776 3482,811 6960,-1355 7772,-4844 229,-970 222,-1947 17,-2868zm-56 -3351l2194 -3620 -14767 1503 0 2117 12573 0zm779 31393l-13610 -18887 -1048 0c-112,0 -225,7 -342,24 -271,11 -550,64 -825,177 -325,127 -2329,1001 -4230,3587 -1905,2586 -3602,6809 -3595,13237 0,1647 106,3446 349,5401 163,1312 1281,2279 2569,2279 105,0 211,-8 324,-18 1415,-180 2427,-1471 2254,-2893 -222,-1764 -314,-3348 -314,-4769 8,-4396 882,-7179 1835,-8957l2561 10904c-39,141 -78,279 -106,430l-5203 30477c-364,2113 1062,4120 3175,4480 222,39 441,56 659,56 1860,0 3500,-1337 3825,-3231l4476 -26165 402 0 4474 26165c321,1894 1965,3231 3824,3231 219,0 441,-17 656,-56 2120,-360 3538,-2367 3179,-4484l-5207 -30473c-25,-144 -64,-289 -103,-430l21 -85zm12154 -310c-318,247 -378,695 -134,1005 239,318 694,381 1008,134l14835 -11409c42,-21 77,-56 102,-91l681 882c451,582 1132,896 1817,896 476,-4 956,-152 1358,-459l9098 -6995c575,-445 875,-1112 871,-1786 0,-486 -158,-980 -476,-1393l-2219 -2889c-448,-586 -1129,-903 -1817,-900 -472,-3 -952,152 -1358,466l-9094 6995c-579,434 -875,1108 -875,1775 0,490 155,984 479,1404l678 885c-43,22 -85,43 -124,71l-14830 11409zm15233 -13769c3,-247 109,-480 310,-635l9102 -6996c141,-113 307,-162 479,-162 251,0 501,113 674,335l2223 2886c120,162 176,342 176,518 0,258 -102,487 -310,646l-9095 6996c-145,105 -310,162 -483,162 -254,0 -505,-113 -671,-335l-2222 -2886c-124,-162 -180,-346 -183,-529zm663 -177c-21,18 -81,60 -85,187 4,50 25,113 60,163l71 95 1552 0 0 2014 600 780c77,99 176,113 215,113 49,0 95,-18 134,-42l9094 -6996c53,-46 89,-109 89,-187 0,-60 -22,-116 -64,-173l-88 -113 -6167 0 -5411 4159zm9380 -5528c371,0 727,-28 1080,-88l-1013 -1316c-77,-98 -166,-109 -219,-109 -49,0 -91,11 -130,39l-1566 1210c585,176 1206,264 1848,264zm-17611 16122l-4332 3334c452,177 910,342 1373,483 250,75 501,106 751,106 1108,0 2138,-719 2473,-1841 222,-730 102,-1475 -265,-2082z"/>
 </g>
</svg>
