<?xml version="1.0" encoding="UTF-16"?>
<!DOCTYPE svg PUBLIC "-//W3C//DTD SVG 1.1//EN" "http://www.w3.org/Graphics/SVG/1.1/DTD/svg11.dtd">
<!-- Creator: CorelDRAW X8 -->
<svg xmlns="http://www.w3.org/2000/svg" xml:space="preserve" width="100%" height="100%" version="1.1" style="shape-rendering:geometricPrecision; text-rendering:geometricPrecision; image-rendering:optimizeQuality; fill-rule:evenodd; clip-rule:evenodd"
viewBox="0 0 88194 59792"
 xmlns:xlink="http://www.w3.org/1999/xlink">
 <defs>
  <style type="text/css">
   <![CDATA[
    .fil0 {fill:#3874A9;fill-rule:nonzero}
   ]]>
  </style>
 </defs>
 <g id="Слой_x0020_1">
  <metadata id="CorelCorpID_0Corel-Layer"/>
  <g id="_58532399824">
   <path class="fil0" d="M13008 4675c2258,0 4085,1771 4085,3958 0,2188 -1824,3962 -4085,3962 -2251,0 -4078,-1774 -4078,-3962 0,-2187 1827,-3958 4078,-3958z"/>
   <path class="fil0" d="M12571 45824c-2977,0 -5820,-1009 -8113,-2896 -2572,-2103 -4139,-5052 -4414,-8308 -377,-4396 1732,-8661 5497,-11130 716,-469 1686,-289 2169,406 487,691 296,1633 -420,2099 -2832,1859 -4420,5073 -4134,8378 208,2441 1390,4664 3316,6248 1937,1584 4378,2346 6904,2138 4085,-325 7468,-3140 8428,-7000 204,-811 1044,-1308 1883,-1114 837,194 1352,1012 1151,1827 -1274,5129 -5775,8869 -11201,9303 -356,35 -716,49 -1066,49z"/>
   <path class="fil0" d="M34645 38733l-6452 -10625c-444,-752 -1093,-1126 -1944,-1126l-8449 0 -116 -2120 5969 0c1164,0 2110,-910 2110,-2046 0,-1125 -946,-2043 -2110,-2043l-6191 0 -205 -3753c-81,-1027 -526,-1887 -1333,-2593 -815,-713 -1768,-1051 -2861,-1005 -1052,81 -1944,511 -2675,1298 -730,790 -1076,1711 -1033,2769l727 11973c81,1020 518,1874 1312,2569 787,680 1728,1026 2826,1026l11423 0 4928 8029c444,745 1139,1122 2067,1122 646,0 1210,-218 1676,-645 466,-431 698,-967 698,-1595 0,-430 -123,-843 -367,-1235z"/>
   <path class="fil0" d="M85749 8572c-279,-2388 -2247,-4321 -5898,-5796 -4664,-1852 -10051,-2776 -16175,-2776 -6124,0 -11511,924 -16175,2776 -3655,1475 -5644,3408 -5983,5796l-2360 18285 0 21230 -37211 0 0 3267 41342 21 0 4907c0,2339 1182,3510 3542,3510 2356,0 3535,-1171 3535,-3510l0 -4907 26620 0 0 4907c0,2339 1186,3510 3542,3510 2357,0 3538,-1171 3538,-3510l0 -4907 4128 0 0 -24518 -2445 -18285zm-31154 -4282l18094 0c918,0 1376,525 1376,1601 0,1108 -458,1669 -1376,1669l-18094 0c-867,0 -1308,-561 -1308,-1669 -4,-1072 441,-1601 1308,-1601zm-11137 21999l1933 -14521c173,-1037 819,-1552 1941,-1552l32688 0c1125,0 1767,515 1937,1552l1933 14521 88 490c0,1249 -674,1877 -2021,1877l-36566 0c-1340,0 -2017,-628 -2017,-1877l84 -490zm5983 16626c-730,678 -1626,1020 -2695,1020 -1016,0 -1884,-339 -2614,-1020 -730,-688 -1094,-1545 -1094,-2575 0,-984 364,-1827 1094,-2537 730,-705 1598,-1061 2614,-1061 1069,0 1965,352 2695,1061 727,713 1097,1553 1097,2537 0,1034 -370,1887 -1097,2575zm33698 0c-731,678 -1602,1020 -2611,1020 -1012,0 -1884,-339 -2610,-1020 -738,-688 -1098,-1545 -1098,-2575 0,-984 360,-1827 1098,-2537 730,-705 1598,-1061 2610,-1061 1009,0 1884,352 2611,1061 733,713 1097,1553 1097,2537 -4,1034 -364,1887 -1097,2575z"/>
  </g>
 </g>
</svg>
