<?xml version="1.0" encoding="UTF-16"?>
<!DOCTYPE svg PUBLIC "-//W3C//DTD SVG 1.1//EN" "http://www.w3.org/Graphics/SVG/1.1/DTD/svg11.dtd">
<!-- Creator: CorelDRAW X8 -->
<svg xmlns="http://www.w3.org/2000/svg" xml:space="preserve" width="100%" height="100%" version="1.1" style="shape-rendering:geometricPrecision; text-rendering:geometricPrecision; image-rendering:optimizeQuality; fill-rule:evenodd; clip-rule:evenodd"
viewBox="0 0 71036 70554"
 xmlns:xlink="http://www.w3.org/1999/xlink">
 <defs>
  <style type="text/css">
   <![CDATA[
    .fil0 {fill:#3874A9;fill-rule:nonzero}
   ]]>
  </style>
 </defs>
 <g id="Слой_x0020_1">
  <metadata id="CorelCorpID_0Corel-Layer"/>
  <g id="_93625173200">
   <path class="fil0" d="M44538 6011l-1383 3934c8442,2899 15240,9620 18175,17963l3979 -1369c-3351,-9535 -11116,-17212 -20771,-20528z"/>
   <path class="fil0" d="M33466 12492c3485,0 6321,-2801 6321,-6248 0,-3443 -2836,-6244 -6321,-6244 -3486,0 -6322,2801 -6322,6244 0,3447 2836,6248 6322,6248zm0 -8333c1164,0 2106,938 2106,2085 0,1150 -942,2085 -2106,2085 -1161,0 -2106,-935 -2106,-2085 0,-1147 945,-2085 2106,-2085z"/>
   <path class="fil0" d="M33466 18740c-10457,0 -18966,8406 -18966,18739 0,10333 8509,18740 18966,18740 10456,0 18969,-8407 18969,-18740 0,-10333 -8513,-18739 -18969,-18739zm0 33316c-8135,0 -14750,-6540 -14750,-14577 0,-8036 6615,-14576 14750,-14576 8135,0 14749,6540 14749,14576 0,8037 -6614,14577 -14749,14577z"/>
   <polygon class="fil0" points="35573,35398 35573,27069 31357,27069 31357,39561 39785,39561 39785,35398 "/>
   <polygon class="fil0" points="68055,31589 65074,34535 62093,31589 59116,34535 62093,37481 59116,40423 62093,43372 65074,40423 68055,43372 71036,40423 68055,37481 71036,34535 "/>
   <path class="fil0" d="M18968 8753c0,543 229,1083 624,1478 388,381 935,607 1482,607 561,0 1094,-230 1492,-618 399,-384 618,-924 618,-1467 0,-551 -223,-1083 -618,-1479 -783,-776 -2191,-776 -2981,0 -391,385 -617,928 -617,1479z"/>
   <path class="fil0" d="M10057 55230c-709,-917 -2029,-1086 -2949,-384 -928,702 -1105,2007 -389,2914 413,536 1038,818 1669,818 448,0 900,-144 1281,-434 931,-698 1097,-2007 388,-2924l0 10z"/>
   <path class="fil0" d="M14012 14958c455,0 910,-141 1298,-441 921,-709 1080,-2018 360,-2928 -716,-906 -2039,-1062 -2956,-352 -921,705 -1080,2014 -363,2921 412,525 1037,800 1661,800z"/>
   <path class="fil0" d="M19 33282c-152,1132 663,2184 1820,2325 92,7 187,17 269,17 1047,0 1958,-776 2088,-1823 145,-1143 -670,-2184 -1827,-2325 -1154,-145 -2205,666 -2350,1806z"/>
   <path class="fil0" d="M12899 63884c381,293 836,434 1280,434 632,0 1256,-285 1676,-818 713,-910 533,-2216 -385,-2911 -920,-702 -2243,-536 -2952,371 -716,917 -547,2222 381,2924z"/>
   <path class="fil0" d="M2135 43726c92,0 184,0 276,-18 1157,-148 1965,-1199 1813,-2339 -148,-1136 -1214,-1940 -2367,-1785 -1157,152 -1965,1203 -1813,2335 144,1048 1047,1807 2091,1807z"/>
   <path class="fil0" d="M4983 23770c-1079,-441 -2310,74 -2748,1139 -437,1058 78,2276 1154,2717 264,102 533,151 794,151 836,0 1619,-490 1958,-1302l0 11c437,-1065 -78,-2282 -1158,-2716z"/>
   <path class="fil0" d="M4275 51555c269,0 540,-50 808,-159 1073,-437 1581,-1654 1133,-2723 -445,-1055 -1680,-1567 -2748,-1119 -1080,445 -1584,1662 -1140,2731 339,797 1122,1270 1947,1270z"/>
   <path class="fil0" d="M44549 64507c-1076,434 -1602,1641 -1161,2710 328,808 1118,1301 1954,1301 258,0 529,-52 791,-155 1079,-434 1594,-1647 1157,-2716 -441,-1066 -1673,-1570 -2741,-1140z"/>
   <path class="fil0" d="M37139 66406c-1153,144 -1979,1181 -1827,2324 127,1059 1034,1824 2081,1824 92,0 177,0 265,-14 1150,-144 1979,-1189 1835,-2325 -145,-1139 -1196,-1947 -2354,-1809z"/>
   <path class="fil0" d="M52482 64507c437,0 885,-134 1266,-416 928,-688 1112,-1997 413,-2914 -702,-914 -2025,-1101 -2949,-409 -939,695 -1119,2000 -416,2914 416,540 1044,825 1686,825z"/>
   <path class="fil0" d="M22086 64392c-1068,-451 -2300,50 -2755,1108 -444,1065 60,2283 1126,2731 271,109 550,158 822,158 822,0 1601,-483 1936,-1280 455,-1059 -46,-2276 -1129,-2727l0 10z"/>
   <path class="fil0" d="M59629 55113c-910,-716 -2233,-561 -2957,349 -716,907 -557,2216 360,2925 388,300 843,441 1299,441 624,0 1248,-276 1661,-794 713,-907 554,-2212 -363,-2921z"/>
   <path class="fil0" d="M27102 68156c-152,1132 656,2183 1813,2342 92,7 187,18 275,18 1048,0 1951,-759 2088,-1799 156,-1143 -652,-2191 -1802,-2350 -1154,-151 -2216,649 -2374,1789z"/>
   <path class="fil0" d="M6981 20312c381,285 829,427 1267,427 638,0 1270,-290 1682,-837 702,-913 526,-2218 -402,-2910 -935,-695 -2254,-519 -2960,406 -698,913 -515,2215 413,2914z"/>
   <path class="fil0" d="M62538 51806c554,0 1108,-226 1492,-607 395,-392 621,-924 621,-1475 0,-550 -226,-1083 -621,-1474 -776,-773 -2194,-773 -2977,0 -395,391 -621,924 -621,1474 0,551 226,1083 621,1475 388,384 938,607 1485,607z"/>
  </g>
 </g>
</svg>
