<?xml version="1.0" encoding="UTF-16"?>
<!DOCTYPE svg PUBLIC "-//W3C//DTD SVG 1.1//EN" "http://www.w3.org/Graphics/SVG/1.1/DTD/svg11.dtd">
<!-- Creator: CorelDRAW X8 -->
<svg xmlns="http://www.w3.org/2000/svg" xml:space="preserve" width="100%" height="100%" version="1.1" style="shape-rendering:geometricPrecision; text-rendering:geometricPrecision; image-rendering:optimizeQuality; fill-rule:evenodd; clip-rule:evenodd"
viewBox="0 0 70556 70555"
 xmlns:xlink="http://www.w3.org/1999/xlink">
 <defs>
  <style type="text/css">
   <![CDATA[
    .fil0 {fill:#C02222;fill-rule:nonzero}
   ]]>
  </style>
 </defs>
 <g id="Слой_x0020_1">
  <metadata id="CorelCorpID_0Corel-Layer"/>
  <path class="fil0" d="M70556 35274c0,-19448 -15826,-35274 -35278,-35274 -19456,0 -35278,15826 -35278,35274 0,19459 15822,35281 35278,35281 19452,0 35278,-15822 35278,-35281zm-7603 0c0,15265 -12421,27672 -27675,27672 -6266,0 -12051,-2095 -16694,-5616l1881 -1877 -5292 -5468 -1965 1965c-3517,-4646 -5602,-10418 -5602,-16676 0,-15254 12414,-27665 27672,-27665 6251,0 12026,2085 16669,5599l-5871 5870 5070 5690 6180 -6187c3528,4646 5627,10431 5627,16693zm-9782 953c10,-1309 0,-2607 0,-3909 0,-289 -103,-547 -290,-744 -1188,-1281 -2268,-2650 -3425,-3959 -131,-148 -286,-250 -423,-388 -25,-28 -50,-49 -78,-70 -32,-39 -67,-64 -102,-95 -805,-794 -1683,-1472 -2861,-1708 -1450,-296 -2851,-219 -4234,303 -345,135 -698,290 -899,593 -850,1302 -1687,2611 -2501,3930 -960,1545 -1920,3083 -2847,4643 -346,582 -745,1146 -925,1831 -236,920 724,1936 1627,1665 476,-149 839,-501 1093,-921 491,-787 942,-1591 1404,-2395 889,-1528 1824,-3034 2650,-4597 144,53 127,141 134,233 28,550 -163,1079 -180,1619 -18,769 -173,1524 -254,2289 -11,113 -28,226 -39,346 -7,64 -18,131 -21,194 -7,60 -14,120 -21,177 -96,829 -219,1654 -272,2480 -53,709 -173,1407 -229,2106 -36,444 -71,889 -127,1323 -152,1227 -286,2458 -438,3679 -151,1171 -226,2343 -430,3510 -74,402 42,783 289,1097 399,501 981,579 1514,403 472,-156 807,-565 917,-1083 243,-1105 317,-2237 469,-3362 201,-1390 325,-2802 526,-4202 56,-381 74,-766 144,-1136 28,-155 92,-240 265,-226 159,11 190,120 201,244 7,116 7,236 7,352 -7,3849 -7,7691 -21,11540 0,278 32,557 92,832 204,745 800,1330 1460,1380 854,77 1475,-297 1824,-1069 268,-568 268,-1168 268,-1771 4,-4988 32,-9973 -7,-14954 -11,-1747 102,-3472 508,-5169 25,-112 11,-254 155,-292 131,-32 201,102 275,176 685,691 1351,1401 2036,2092 201,205 324,437 374,727 116,765 63,1538 102,2307 35,688 568,1210 1203,1210 625,0 1080,-505 1087,-1231zm-6767 -14249c7,-840 -536,-1595 -1231,-1997 -70,-39 -127,-95 -201,-127 -46,-21 -102,-17 -155,-35 -208,-74 -423,-141 -639,-138 -1298,25 -2282,960 -2286,2248 -28,250 25,504 110,751 17,46 35,92 56,138 25,56 74,109 113,172 378,681 1118,1232 1944,1235 1259,0 2275,-1153 2289,-2247zm-8463 7955c152,-257 237,-522 237,-822l0 -2127 0 -229 0 -187c-7,-2128 -7,-4251 -7,-6375 0,-748 -106,-1475 -431,-2145 -769,-1573 -1940,-2554 -3785,-2533 -667,11 -1337,-18 -1997,7 -363,11 -469,-144 -455,-469 11,-416 0,-829 0,-1242 11,-219 -63,-317 -300,-314 -652,14 -1305,14 -1958,0 -208,0 -285,78 -278,286 10,441 0,882 7,1333 0,233 17,417 -336,413 -342,-3 -440,-123 -426,-444 28,-417 0,-826 10,-1239 11,-232 -42,-352 -317,-345 -618,17 -1242,17 -1859,0 -283,-7 -318,113 -307,342 7,427 -11,857 0,1291 17,282 -92,392 -381,388 -815,-14 -1634,-25 -2445,4 -1436,53 -2424,882 -3179,2018 -494,769 -656,1661 -645,2600 17,4801 17,9609 0,14418 -7,959 113,1855 621,2695 733,1213 1757,2099 3189,2120 885,18 1774,-4 2656,4l177 0 45 0c2840,17 5680,28 8520,10 533,-7 1065,-155 1573,-543 -899,-99 -1375,-603 -1668,-1309 -92,-212 -205,-279 -424,-300 -698,-74 -1375,-822 -1421,-1489 -57,-762 293,-1305 949,-1626 554,-279 1136,-229 1623,117 275,197 370,95 472,-99 773,-1457 1701,-2798 2540,-4209zm-16355 5623c8,-882 741,-1584 1641,-1591 988,-10 1661,773 1640,1665 -17,875 -765,1666 -1690,1630 -723,-24 -1700,-836 -1591,-1704zm10753 -17497c0,363 -254,395 -550,395 -2135,-11 -4283,-11 -6424,0 -275,0 -494,-53 -501,-374 -14,-339 197,-420 511,-416 1073,14 2159,3 3228,3 1069,0 2131,4 3193,-3 289,0 543,38 543,395zm4350 3517c-71,1055 -18,2124 -18,3185 0,981 -705,1697 -1697,1697 -2130,7 -4261,7 -6388,7l-6305 0c-1044,-7 -1739,-691 -1746,-1757 -10,-1047 -10,-2102 0,-3146 7,-1023 706,-1771 1729,-1771 4233,-18 8459,0 12689,-14 829,-4 1799,793 1736,1799zm-17568 27682c-265,-21 -321,81 -318,325 14,660 7,1333 0,1997 -3,243 64,328 318,342 352,21 829,-205 1019,127 176,278 7,712 -49,1079 -124,773 -120,759 670,759 300,0 427,-99 444,-395 8,-350 64,-702 53,-1055 -17,-395 110,-533 526,-533 744,4 1482,0 2226,0l131 0 165 0c3122,7 6245,7 9374,7 1668,0 3340,7 5013,0 250,-3 448,11 536,314 102,388 261,769 381,1157 53,177 102,346 324,346 237,0 473,71 713,-32 -187,-494 -370,-984 -557,-1464 -99,-282 35,-324 278,-321 826,7 1658,-17 2487,7 381,14 470,-120 452,-469 -35,-579 0,-1157 -18,-1732 0,-152 138,-402 -130,-448 -261,-32 -589,-109 -745,197 -677,1387 -2709,1277 -3393,-282 -547,-1252 -935,-2575 -1415,-3916 533,0 1016,-7 1499,0 177,0 339,-17 321,-247 -35,-599 202,-1160 202,-1760 -11,-279 -78,-346 -346,-342 -713,18 -1422,7 -2131,10 -254,0 -434,-49 -512,-356 -84,-367 -278,-702 -398,-1058 -201,-582 -314,-660 -903,-579 -152,28 -198,46 -120,223 166,381 303,776 462,1160 247,610 247,610 -423,610l-1958 0 -159 0 -159 0 -10146 0c-180,0 -356,-14 -532,0 -25,0 -15,-31 -32,-31 -7,0 -7,-4 -7,-4 -53,-7 -50,-63 -81,-88 -67,-42 -177,-42 -163,-162 50,-614 -45,-1242 106,-1852 21,-106 67,-201 -46,-286 -317,-212 -885,39 -924,413 -46,561 -25,1125 -152,1675 -53,258 -144,350 -398,335 -353,-14 -716,8 -1062,-3 -208,-11 -296,46 -293,268 14,603 14,1210 4,1813 -4,187 63,268 254,265 81,-4 169,-4 250,-4l131 0 42 0c183,4 370,4 557,-7 258,-17 335,71 300,325 -144,1115 -250,2233 -293,3351 -7,247 -116,339 -356,325 -342,-11 -684,17 -1019,-4zm2434 -398c-11,-1083 222,-2145 194,-3225 -11,-331 144,-377 427,-374 2275,7 4554,0 6826,0l1651 0 148 0 162 0c1799,0 3606,7 5408,0 272,0 424,43 526,357 353,1086 762,2155 1154,3224 105,293 102,434 -297,427 -2631,-18 -5263,-7 -7891,-7 -971,0 -1941,3 -2911,0l-162 0 -141 0c-1559,0 -3119,-4 -4682,3 -328,0 -409,-60 -412,-405z"/>
 </g>
</svg>
