<?xml version="1.0" encoding="UTF-16"?>
<!DOCTYPE svg PUBLIC "-//W3C//DTD SVG 1.1//EN" "http://www.w3.org/Graphics/SVG/1.1/DTD/svg11.dtd">
<!-- Creator: CorelDRAW X8 -->
<svg xmlns="http://www.w3.org/2000/svg" xml:space="preserve" width="100%" height="100%" version="1.1" style="shape-rendering:geometricPrecision; text-rendering:geometricPrecision; image-rendering:optimizeQuality; fill-rule:evenodd; clip-rule:evenodd"
viewBox="0 0 70562 70554"
 xmlns:xlink="http://www.w3.org/1999/xlink">
 <defs>
  <style type="text/css">
   <![CDATA[
    .fil0 {fill:#C02222;fill-rule:nonzero}
   ]]>
  </style>
 </defs>
 <g id="Слой_x0020_1">
  <metadata id="CorelCorpID_0Corel-Layer"/>
  <path class="fil0" d="M50542 40012c-11056,0 -20017,-8957 -20017,-20006 0,-11049 8961,-20006 20017,-20006 11056,0 20020,8957 20020,20006 0,11049 -8964,20006 -20020,20006zm3439 -30597c0,-1277 -1030,-2307 -2307,-2307l-2346 0c-1273,0 -2307,1030 -2307,2307l0 2417c0,1280 1034,2311 2307,2311l2346 0c1277,0 2307,-1031 2307,-2311l0 -2417zm74 9451c0,-1312 -1065,-2381 -2381,-2381l-2346 0c-1312,0 -2381,1069 -2381,2381l0 11653c0,1312 1065,2377 2381,2377l2346 0c1316,0 2381,-1062 2381,-2377l0 -11653zm-25499 32258c1517,1648 7074,4223 12263,-81 5189,-4297 10887,1514 14937,4558 4057,3030 4057,5941 1397,9606 -2660,3669 -9187,7976 -18676,3302 -9494,-4685 -22790,-15815 -32410,-29093 -9620,-13279 -6135,-20881 -946,-25559 6901,-6220 11519,4046 12658,5440 1044,1270 4939,6956 2029,10121 -2914,3161 -3659,9186 -2011,10830 1640,1641 9655,9684 10759,10876z"/>
 </g>
</svg>
