<?xml version="1.0" encoding="UTF-16"?>
<!DOCTYPE svg PUBLIC "-//W3C//DTD SVG 1.1//EN" "http://www.w3.org/Graphics/SVG/1.1/DTD/svg11.dtd">
<!-- Creator: CorelDRAW X8 -->
<svg xmlns="http://www.w3.org/2000/svg" xml:space="preserve" width="100%" height="100%" version="1.1" style="shape-rendering:geometricPrecision; text-rendering:geometricPrecision; image-rendering:optimizeQuality; fill-rule:evenodd; clip-rule:evenodd"
viewBox="0 0 68290 70555"
 xmlns:xlink="http://www.w3.org/1999/xlink">
 <defs>
  <style type="text/css">
   <![CDATA[
    .fil0 {fill:#3874A9;fill-rule:nonzero}
   ]]>
  </style>
 </defs>
 <g id="Слой_x0020_1">
  <metadata id="CorelCorpID_0Corel-Layer"/>
  <path class="fil0" d="M68290 30025l0 -3147 -10156 0 74 543 328 2339 39 265 4491 0 0 34251 -10898 0 -278 2335 13486 0 0 -36586 2914 0zm-9338 7436l-3510 -25079 -17342 -21 -2674 25280 3189 2536 1238 -16471 1072 28 -2148 28886 2953 0 1898 17847 3037 88 60 -17935 1295 0 -43 17847 2791 0 2141 -17847 3122 -14 -3270 -28924 1104 0 1863 16633 3224 -2854zm-7397 -32120c0,-2731 -2173,-4946 -4855,-4946 -2681,0 -4857,2215 -4857,4946 0,2734 2176,4946 4857,4946 2682,0 4855,-2212 4855,-4946zm-30569 50923c5207,0 9430,-4268 9430,-9532 0,-5260 -4223,-9528 -9430,-9528 -5207,0 -9426,4268 -9426,9528 0,5264 4219,9532 9426,9532zm1510 -14086c0,839 -504,1263 -1517,1263 -1001,0 -1502,-424 -1502,-1263 0,-431 120,-752 356,-960 236,-212 621,-317 1146,-317 526,0 911,109 1154,324 243,215 363,533 363,953zm-109 10389l-2840 0 0 -8315 2840 0 0 8315zm13183 -22542l335 -3147 -4706 0 -1986 -16073 -16975 -17 -1454 16090 -10784 0 0 3147 2596 0 0 36590 39963 0 -251 -2336 -37398 0 0 -34254 30660 0zm-20838 -7515l-219 4368 -1012 0 285 -4389 946 21zm13543 4368l-1041 0 -388 -4410 977 0 452 4410zm-3098 -22285c0,-2537 -2021,-4593 -4512,-4593 -2494,0 -4515,2056 -4515,4593 0,2540 2021,4596 4515,4596 2491,0 4512,-2056 4512,-4596z"/>
 </g>
</svg>
