<?xml version="1.0" encoding="UTF-8"?>
<!DOCTYPE svg PUBLIC "-//W3C//DTD SVG 1.1//EN" "http://www.w3.org/Graphics/SVG/1.1/DTD/svg11.dtd">
<!-- Creator: CorelDRAW X8 -->
<svg xmlns="http://www.w3.org/2000/svg" xml:space="preserve" width="100%" height="100%" version="1.1" style="shape-rendering:geometricPrecision; text-rendering:geometricPrecision; image-rendering:optimizeQuality; fill-rule:evenodd; clip-rule:evenodd"
viewBox="0 0 71610 70556"
 xmlns:xlink="http://www.w3.org/1999/xlink">
 <defs>
  <style type="text/css">
   <![CDATA[
    .fil0 {fill:#C02222;fill-rule:nonzero}
   ]]>
  </style>
 </defs>
 <g id="Слой_x0020_1">
  <metadata id="CorelCorpID_0Corel-Layer"/>
  <g id="_93680922192">
   <path class="fil0" d="M35803 0c-19709,0 -35803,15794 -35803,35278 0,19491 16094,35278 35803,35278 19781,0 35807,-15858 35807,-35278 0,-19414 -16026,-35278 -35807,-35278zm0 62946c-6357,0 -12269,-2134 -16961,-5620l1912 -1883 -5345 -5472 -1982 1954c-3539,-4625 -5701,-10389 -5701,-16647 0,-15293 12629,-27665 28077,-27665 6357,0 12196,2064 16888,5616l-5899 5814 5119 5697 6269 -6177c3609,4629 5708,10456 5708,16715 67,15226 -12562,27668 -28085,27668z"/>
   <path class="fil0" d="M23820 29561l11945 0 8075 -8061c-466,-297 -981,-512 -1573,-512l-17269 0c-1626,0 -2942,1298 -2942,2896l0 19371 1764 -1760 0 -11934zm5563 -4996l2156 0 0 1740 -2156 0 0 -1740zm-3626 0l2159 0 0 1740 -2159 0 0 -1740z"/>
   <polygon class="fil0" points="43446,33496 43446,53844 45206,53844 45206,31760 "/>
   <polygon class="fil0" points="22741,53844 23821,53844 23821,52786 "/>
   <path class="fil0" d="M36121 29561l7994 -7878c-85,-70 -184,-123 -275,-183l-8072 8061 353 0z"/>
   <polygon class="fil0" points="43446,33083 43446,33496 45206,31760 45206,31344 "/>
   <polygon class="fil0" points="22376,53844 22743,53844 23823,52786 23823,52422 "/>
   <polygon class="fil0" points="22056,43255 22056,43425 23820,41686 23820,41495 "/>
   <path class="fil0" d="M43444 29561l0 3520 1764 -1739 0 -7458c0,-899 -441,-1672 -1093,-2201l-7994 7878 7323 0z"/>
   <polygon class="fil0" points="22056,43424 22056,53845 22377,53845 23820,52423 23820,41685 "/>
   <path class="fil0" d="M31310 46112l0 7373 4639 0 0 -7373 1750 0 0 -6283c0,-205 -60,-388 -120,-572l-6967 6855 698 0z"/>
   <path class="fil0" d="M30932 34389l1951 -1948c-963,265 -1690,992 -1951,1948z"/>
   <path class="fil0" d="M30225 46112l388 0 6967 -6855c-28,-102 -53,-205 -95,-296l-7260 7151z"/>
   <path class="fil0" d="M30932 34389c-28,116 -53,233 -70,356l2416 -2381c-137,17 -268,42 -395,77l-1951 1948z"/>
   <path class="fil0" d="M35645 37802l-1277 0c1214,-321 2106,-1411 2106,-2709 0,-1546 -1273,-2802 -2847,-2802 -123,0 -229,57 -349,75l-2417 2377c-14,124 -70,226 -70,350 0,1298 892,2388 2106,2709l-1274 0c-1143,0 -2060,907 -2060,2028l0 6280 663 0 7257 -7151c-332,-681 -1020,-1157 -1838,-1157z"/>
   <polygon class="fil0" points="47092,42025 50736,44544 51749,43119 48097,40603 "/>
   <polygon class="fil0" points="47618,38707 52067,38707 52067,36957 47618,36957 "/>
   <polygon class="fil0" points="51736,32581 50720,31156 47076,33672 48088,35093 "/>
   <polygon class="fil0" points="15529,43123 16541,44541 20189,42026 19176,40597 "/>
   <polygon class="fil0" points="15209,38707 19657,38707 19657,36957 15209,36957 "/>
   <polygon class="fil0" points="20201,33671 16557,31156 15544,32578 19192,35096 "/>
  </g>
 </g>
</svg>
