<?xml version="1.0" encoding="UTF-16"?>
<!DOCTYPE svg PUBLIC "-//W3C//DTD SVG 1.1//EN" "http://www.w3.org/Graphics/SVG/1.1/DTD/svg11.dtd">
<!-- Creator: CorelDRAW X8 -->
<svg xmlns="http://www.w3.org/2000/svg" xml:space="preserve" width="100%" height="100%" version="1.1" style="shape-rendering:geometricPrecision; text-rendering:geometricPrecision; image-rendering:optimizeQuality; fill-rule:evenodd; clip-rule:evenodd"
viewBox="0 0 75678 74912"
 xmlns:xlink="http://www.w3.org/1999/xlink">
 <defs>
  <style type="text/css">
   <![CDATA[
    .fil0 {fill:#C02222;fill-rule:nonzero}
   ]]>
  </style>
 </defs>
 <g id="Слой_x0020_1">
  <metadata id="CorelCorpID_0Corel-Layer"/>
  <path class="fil0" d="M49481 52542l-1648 3281c-2667,5345 -6696,9176 -12785,8950 -9680,-356 -10361,-8375 -8696,-14862l5511 -21587 12950 0c-60,604 -5859,24804 -5859,24804 -420,2050 -1754,6114 1178,6124 1852,14 3514,-2649 4572,-5023l1333 -2798c657,-1481 2198,-1647 3197,-1270 973,367 652,1665 247,2381zm-7934 -42375c3975,321 6043,3277 6219,6812 251,4269 -3401,7885 -7631,7885 -3817,0 -6967,-3123 -7045,-6823 -81,-4840 3980,-8283 8457,-7874zm-3712 -10167c-20898,0 -37835,16767 -37835,37451 0,20687 16937,37461 37835,37461 20888,0 37843,-16774 37843,-37461 0,-20684 -16955,-37451 -37843,-37451z"/>
 </g>
</svg>
